{
  "trigger": true,
  "modules": [
    "custom"
  ],
  "parentResource": "cognitoforapi",
  "functionName": "cognitoforapiPostAuthentication",
  "resourceName": "cognitoforapiPostAuthentication",
  "parentStack": "auth",
  "triggerEnvs": [],
  "triggerDir": "/snapshot/repo/build/node_modules/@aws-amplify/amplify-category-auth/provider-utils/awscloudformation/triggers/PostAuthentication",
  "triggerTemplate": "PostAuthentication.json.ejs",
  "triggerEventPath": "PostAuthentication.event.json",
  "roleName": "cognitoforapiPostAuthentication",
  "skipEdit": true,
  "enableCors": false
}